%YAML 1.1
%TAG !u! tag:unity3d.com,2011:
--- !u!221 &22100000
AnimatorOverrideController:
  m_ObjectHideFlags: 0
  m_CorrespondingSourceObject: {fileID: 0}
  m_PrefabInstance: {fileID: 0}
  m_PrefabAsset: {fileID: 0}
  m_Name: Character_3
  m_Controller: {fileID: 9100000, guid: 0cd8c3ce903b27346b8f3e302c6aeb47, type: 2}
  m_Clips: []
